[gd_scene load_steps=2 format=2]

[ext_resource path="res://tiles/cherries/cherries.png" type="Texture" id=1]

[node name="Cherriescon" type="Node2D"]

[node name="Cherries" type="Sprite" parent="."]
position = Vector2( 3, -3 )
texture = ExtResource( 1 )
