[gd_scene load_steps=5 format=2]

[ext_resource path="res://tiles/cherries/cherries.png" type="Texture" id=1]
[ext_resource path="res://tiles/cherries/Cherries.gd" type="Script" id=2]
[ext_resource path="res://tiles/cherries/212977__soramoosic__arcade-drops.mp3" type="AudioStream" id=3]

[sub_resource type="CircleShape2D" id=1]

[node name="Cherries" type="Node2D"]
script = ExtResource( 2 )

[node name="Cherries" type="Sprite" parent="."]
position = Vector2( 2, 0 )
scale = Vector2( 0.65, 0.65 )
texture = ExtResource( 1 )

[node name="Area2D" type="Area2D" parent="."]

[node name="CollisionShape2D" type="CollisionShape2D" parent="Area2D"]
scale = Vector2( 7, 7 )
shape = SubResource( 1 )

[node name="PickupSound" type="AudioStreamPlayer2D" parent="."]
stream = ExtResource( 3 )
volume_db = 5.0
max_distance = 500.0
