[gd_scene load_steps=6 format=2]

[ext_resource path="res://gui/autopilot_button/helm-icon.png" type="Texture" id=1]
[ext_resource path="res://pages/title/logo-white-rim.png" type="Texture" id=2]
[ext_resource path="res://pages/title/selectors/selector_item/single-bubble.png" type="Texture" id=3]
[ext_resource path="res://gui/autopilot_button/AutopilotButton.gd" type="Script" id=4]
[ext_resource path="res://bubble_theme.tres" type="Theme" id=5]

[node name="AutopilotButton" type="Node2D"]
script = ExtResource( 4 )

[node name="Button" type="TextureButton" parent="."]
margin_left = -50.0
margin_top = -50.0
margin_right = 50.0
margin_bottom = 50.0

[node name="Circle" type="Sprite" parent="."]
scale = Vector2( 0.6, 0.6 )
texture = ExtResource( 3 )

[node name="Ring" type="Sprite" parent="."]
modulate = Color( 1, 1, 1, 0.301961 )
scale = Vector2( 0.3, 0.3 )
texture = ExtResource( 2 )

[node name="Wheel" type="Sprite" parent="."]
modulate = Color( 0.0588235, 0.294118, 0.843137, 1 )
scale = Vector2( 0.8, 0.8 )
texture = ExtResource( 1 )

[node name="Label" type="Label" parent="."]
margin_left = -85.0
margin_top = 66.0
margin_right = 88.0
margin_bottom = 99.0
theme = ExtResource( 5 )
custom_colors/font_color = Color( 1, 1, 1, 1 )
text = "Autopilot"
align = 1
