[gd_scene load_steps=6 format=2]

[ext_resource path="res://tiles/speed/Speed.tscn" type="PackedScene" id=1]
[ext_resource path="res://tiles/wall_old/Wall.tscn" type="PackedScene" id=2]
[ext_resource path="res://bubble/BubbleLocal.tscn" type="PackedScene" id=3]
[ext_resource path="res://background/Background.tscn" type="PackedScene" id=4]
[ext_resource path="res://tiles/speed/SpeedTest.gd" type="Script" id=5]

[node name="SpeedTest" type="Node2D"]
script = ExtResource( 5 )

[node name="Background" parent="." instance=ExtResource( 4 )]
position = Vector2( -56, -40 )
scale = Vector2( 1.10608, 0.638775 )
z_index = -18

[node name="Speed" parent="." instance=ExtResource( 1 )]
position = Vector2( 136, 104 )

[node name="Wall" parent="." instance=ExtResource( 2 )]
position = Vector2( 536, -8 )
scale = Vector2( 13.8061, 0.749045 )

[node name="Wall3" parent="." instance=ExtResource( 2 )]
position = Vector2( 544, 608 )
scale = Vector2( 13.3778, 0.814575 )

[node name="Wall2" parent="." instance=ExtResource( 2 )]
position = Vector2( 1080, 368 )
scale = Vector2( 1.23233, 6.9751 )

[node name="Wall4" parent="." instance=ExtResource( 2 )]
position = Vector2( -40, 360 )
scale = Vector2( 0.980734, 6.89575 )

[node name="Bubble" parent="." instance=ExtResource( 3 )]
position = Vector2( 960, 88 )

[node name="CanvasModulate" type="CanvasModulate" parent="."]
scale = Vector2( 2.21607, -27.527 )
color = Color( 0.537255, 0.537255, 0.537255, 1 )
