[gd_scene load_steps=2 format=2]

[ext_resource path="res://tiles/vortex/vortex.png" type="Texture" id=1]

[node name="VortexIcon" type="Node2D"]

[node name="vortex" type="Sprite" parent="."]
scale = Vector2( 1.2, 1.2 )
texture = ExtResource( 1 )
