[gd_scene load_steps=3 format=2]

[ext_resource path="res://level_generator/LevelGeneratorTest.gd" type="Script" id=1]
[ext_resource path="res://level_generator/LevelGenerator.tscn" type="PackedScene" id=2]

[node name="LevelGeneratorTest" type="Node2D"]
script = ExtResource( 1 )

[node name="LevelGenerator" parent="." instance=ExtResource( 2 )]
position = Vector2( 18.475, 7.8809 )

[node name="TextEdit" type="TextEdit" parent="."]
margin_left = 94.0
margin_top = 11.0
margin_right = 718.0
margin_bottom = 369.0
__meta__ = {
"_edit_use_anchors_": false
}
