[gd_scene load_steps=4 format=2]

[ext_resource path="res://bubble/BubbleLocal.tscn" type="PackedScene" id=1]
[ext_resource path="res://tiles/chest/Chest.tscn" type="PackedScene" id=2]
[ext_resource path="res://tiles/chest/ChestTest.gd" type="Script" id=3]

[node name="ChestTest" type="Node2D"]
script = ExtResource( 3 )

[node name="Bubble" parent="." instance=ExtResource( 1 )]
position = Vector2( 557, 393.312 )

[node name="Chest" parent="." instance=ExtResource( 2 )]
position = Vector2( 243, 310.312 )

[node name="Chest2" parent="." instance=ExtResource( 2 )]
position = Vector2( 243, 515.312 )

[node name="Chest3" parent="." instance=ExtResource( 2 )]
position = Vector2( 406, 694.312 )
