[gd_scene load_steps=8 format=2]

[ext_resource path="res://tiles/chest/ChestOpen.png" type="Texture" id=1]
[ext_resource path="res://tiles/chest/Chest.gd" type="Script" id=2]
[ext_resource path="res://tiles/chest/ChestClosed.png" type="Texture" id=3]
[ext_resource path="res://tiles/key/key.png" type="Texture" id=4]
[ext_resource path="res://fonts/Gaegu-Regular.ttf" type="DynamicFontData" id=5]

[sub_resource type="CircleShape2D" id=1]

[sub_resource type="DynamicFont" id=2]
size = 48
use_mipmaps = true
use_filter = true
font_data = ExtResource( 5 )

[node name="Chest" type="Node2D"]
script = ExtResource( 2 )

[node name="ChestClosed" type="Sprite" parent="."]
texture = ExtResource( 3 )

[node name="ChestOpen" type="Sprite" parent="."]
visible = false
position = Vector2( 14, -10 )
texture = ExtResource( 1 )

[node name="Area2D" type="Area2D" parent="."]

[node name="CollisionShape2D" type="CollisionShape2D" parent="Area2D"]
scale = Vector2( 10, 10 )
shape = SubResource( 1 )

[node name="KeyLabel" type="Label" parent="."]
margin_left = -55.0
margin_top = -8.0
margin_right = 22.0
margin_bottom = 57.0
custom_colors/font_color = Color( 0.968627, 0.956863, 0.239216, 1 )
custom_fonts/font = SubResource( 2 )
text = "99"
align = 1

[node name="key" type="Sprite" parent="."]
position = Vector2( 44.987, 19.812 )
scale = Vector2( 0.46875, 0.516667 )
texture = ExtResource( 4 )
