[gd_scene load_steps=3 format=2]

[ext_resource path="res://pages/game/finish_anim/ThrownPearl.gd" type="Script" id=1]
[ext_resource path="res://tiles/dot/dot.png" type="Texture" id=2]

[node name="ThrownPearl" type="Node2D"]
script = ExtResource( 1 )

[node name="Timer" type="Timer" parent="."]
one_shot = true

[node name="Dot" type="Sprite" parent="."]
scale = Vector2( 0.35, 0.35 )
texture = ExtResource( 2 )
