[gd_scene load_steps=2 format=2]

[ext_resource path="res://networking/ServerLevelVoter.gd" type="Script" id=1]

[node name="ServerLevelVoter" type="Node2D"]
script = ExtResource( 1 )

[node name="UpdateInterval" type="Timer" parent="."]

[node name="VotingCutoff" type="Timer" parent="."]
wait_time = 10.0

[node name="Bubbles" type="Node2D" parent="."]
