[gd_scene load_steps=3 format=2]

[ext_resource path="res://pages/bubble_picker/featured_bubble/FeaturedBubble.tscn" type="PackedScene" id=1]
[ext_resource path="res://pages/bubble_picker/featured_bubble/FeaturedBubbleTest.gd" type="Script" id=2]

[node name="FeaturedBubbleTest" type="Node2D"]
script = ExtResource( 2 )

[node name="FeaturedBubble" parent="." instance=ExtResource( 1 )]
