[gd_scene load_steps=3 format=2]

[ext_resource path="res://tiles/wall/Wall.tscn" type="PackedScene" id=1]
[ext_resource path="res://tiles/wall/WallTest.gd" type="Script" id=2]

[node name="WallTest" type="Node2D"]
position = Vector2( 400, 400 )
script = ExtResource( 2 )

[node name="Right" parent="." instance=ExtResource( 1 )]
position = Vector2( 256, 0 )

[node name="Center" parent="." instance=ExtResource( 1 )]

[node name="Bottom" parent="." instance=ExtResource( 1 )]
position = Vector2( 0, 256 )

[node name="Left" parent="." instance=ExtResource( 1 )]
position = Vector2( -256, 0 )

[node name="Top" parent="." instance=ExtResource( 1 )]
position = Vector2( 0, -256 )
