[gd_scene load_steps=7 format=2]

[ext_resource path="res://tiles/wall/TR-000.png" type="Texture" id=1]
[ext_resource path="res://tiles/wall/WallCrumble.gd" type="Script" id=2]
[ext_resource path="res://tiles/wall/512243__neospica__rock-smash.mp3" type="AudioStream" id=3]

[sub_resource type="Gradient" id=2]
colors = PoolColorArray( 1, 1, 1, 1, 1, 1, 1, 0 )

[sub_resource type="GradientTexture" id=3]
gradient = SubResource( 2 )

[sub_resource type="ParticlesMaterial" id=1]
emission_shape = 2
emission_box_extents = Vector3( 100, 100, 1 )
flag_disable_z = true
spread = 180.0
gravity = Vector3( 0, 98, 0 )
initial_velocity = 50.0
initial_velocity_random = 1.0
angular_velocity = 57.6
angular_velocity_random = 1.0
orbit_velocity = 0.0
orbit_velocity_random = 0.0
damping = 55.0
scale = 0.6
scale_random = 1.0
color_ramp = SubResource( 3 )
hue_variation = -0.08
hue_variation_random = 1.0

[node name="WallCrumble" type="Particles2D"]
emitting = false
amount = 10
lifetime = 4.0
one_shot = true
explosiveness = 1.0
visibility_rect = Rect2( -300, -150, 600, 800 )
process_material = SubResource( 1 )
texture = ExtResource( 1 )
script = ExtResource( 2 )

[node name="Timer" type="Timer" parent="."]
wait_time = 5.0
one_shot = true
autostart = true

[node name="Smash" type="AudioStreamPlayer2D" parent="."]
stream = ExtResource( 3 )
