[gd_scene load_steps=3 format=2]

[ext_resource path="res://level_renderer/LevelRenderer.tscn" type="PackedScene" id=1]
[ext_resource path="res://level_solver/LevelSolverTest.gd" type="Script" id=3]

[node name="LevelSolverTest" type="Node2D"]
script = ExtResource( 3 )

[node name="LevelRenderer" parent="." instance=ExtResource( 1 )]
scale = Vector2( 0.15, 0.15 )

[node name="Timer" type="Timer" parent="."]
wait_time = 0.2
autostart = true
