[gd_scene load_steps=3 format=2]

[ext_resource path="res://pages/title/selectors/generic_selector/GenericSelector.tscn" type="PackedScene" id=1]
[ext_resource path="res://pages/title/selectors/generic_selector/GenericSelectorTest.gd" type="Script" id=2]

[node name="GenericSelectorTest" type="Node2D"]
script = ExtResource( 2 )

[node name="GenericSelector" parent="." instance=ExtResource( 1 )]
position = Vector2( 400, 100 )

[node name="Activate" type="Button" parent="."]
margin_left = 12.0
margin_top = 18.0
margin_right = 76.0
margin_bottom = 38.0
text = "Activate"
__meta__ = {
"_edit_use_anchors_": false
}

[node name="Deactivate" type="Button" parent="."]
margin_left = 89.0
margin_top = 18.0
margin_right = 169.0
margin_bottom = 38.0
text = "Deactivate"
__meta__ = {
"_edit_use_anchors_": false
}

[connection signal="pressed" from="Activate" to="." method="_on_Activate_pressed"]
[connection signal="pressed" from="Deactivate" to="." method="_on_Deactivate_pressed"]
