[gd_resource type="ShaderMaterial" load_steps=2 format=2]

[ext_resource path="res://background/water.shader" type="Shader" id=1]

[resource]
shader = ExtResource( 1 )
shader_param/sprite_scale = Vector2( 6, 8 )
shader_param/top_offset = 0.0
shader_param/scale_x = 1.0
