[gd_scene load_steps=3 format=2]

[ext_resource path="res://pages/title/selectors/generic_selector/GenericSelector.tscn" type="PackedScene" id=1]
[ext_resource path="res://pages/featured_bubble/PriceSelector.gd" type="Script" id=2]

[node name="PriceSelector" instance=ExtResource( 1 )]
script = ExtResource( 2 )
