[gd_scene load_steps=2 format=2]

[ext_resource path="res://tiles/debris/driftwood.png" type="Texture" id=1]

[node name="DebrisIcon" type="Node2D"]

[node name="driftwood" type="Sprite" parent="."]
scale = Vector2( 0.5, 0.714 )
texture = ExtResource( 1 )
