[gd_scene load_steps=4 format=2]

[ext_resource path="res://tiles/debris/Debris.tscn" type="PackedScene" id=1]
[ext_resource path="res://bubble/BubbleLocal.tscn" type="PackedScene" id=2]
[ext_resource path="res://tiles/wall_old/Wall.tscn" type="PackedScene" id=3]

[node name="DebrisTest" type="Node2D"]

[node name="Bubble" parent="." instance=ExtResource( 2 )]
position = Vector2( 512, 320 )

[node name="Debris" parent="." instance=ExtResource( 1 )]
position = Vector2( 320, 304 )

[node name="Wall" parent="." instance=ExtResource( 3 )]
position = Vector2( 536, -8 )
scale = Vector2( 13.8061, 0.749045 )

[node name="Wall3" parent="." instance=ExtResource( 3 )]
position = Vector2( 544, 608 )
scale = Vector2( 13.3778, 0.814575 )

[node name="Wall2" parent="." instance=ExtResource( 3 )]
position = Vector2( 1080, 368 )
scale = Vector2( 1.23233, 6.9751 )

[node name="Wall4" parent="." instance=ExtResource( 3 )]
position = Vector2( -40, 360 )
scale = Vector2( 0.980734, 6.89575 )
