[gd_scene load_steps=3 format=2]

[ext_resource path="res://tiles/debris/DebrisPiece.tscn" type="PackedScene" id=1]
[ext_resource path="res://tiles/debris/Debris.gd" type="Script" id=2]

[node name="Debris" type="Node2D"]
script = ExtResource( 2 )

[node name="DebrisPiece5" parent="." instance=ExtResource( 1 )]
position = Vector2( -32, 24 )
rotation = 0.232481

[node name="DebrisPiece1" parent="." instance=ExtResource( 1 )]
position = Vector2( -32, -24 )

[node name="DebrisPiece2" parent="." instance=ExtResource( 1 )]
position = Vector2( 24, -32 )

[node name="DebrisPiece3" parent="." instance=ExtResource( 1 )]
position = Vector2( -24, -5.72205e-06 )
rotation = -0.193748

[node name="DebrisPiece4" parent="." instance=ExtResource( 1 )]
position = Vector2( 32, -8 )
rotation = 0.232481
