[gd_scene load_steps=8 format=2]

[ext_resource path="res://bubble/Bubble.tscn" type="PackedScene" id=1]
[ext_resource path="res://bubble/BubbleLocal.gd" type="Script" id=2]
[ext_resource path="res://bubble/KeyDisplay.tscn" type="PackedScene" id=3]
[ext_resource path="res://bubble/416710__inspectorj__splash-small-a.mp3" type="AudioStream" id=4]

[sub_resource type="Animation" id=1]
length = 0.001
tracks/0/type = "value"
tracks/0/path = NodePath("Camera2D:zoom")
tracks/0/interp = 1
tracks/0/loop_wrap = true
tracks/0/imported = false
tracks/0/enabled = true
tracks/0/keys = {
"times": PoolRealArray( 0 ),
"transitions": PoolRealArray( 1 ),
"update": 0,
"values": [ Vector2( 1.5, 1.5 ) ]
}

[sub_resource type="Animation" id=3]
resource_name = "zoom_in"
length = 4.0
tracks/0/type = "value"
tracks/0/path = NodePath("Camera2D:zoom")
tracks/0/interp = 1
tracks/0/loop_wrap = true
tracks/0/imported = false
tracks/0/enabled = true
tracks/0/keys = {
"times": PoolRealArray( 0, 3 ),
"transitions": PoolRealArray( 0.378929, 0.574349 ),
"update": 0,
"values": [ Vector2( 1.5, 1.5 ), Vector2( 0.75, 0.75 ) ]
}
tracks/1/type = "method"
tracks/1/path = NodePath(".")
tracks/1/interp = 1
tracks/1/loop_wrap = true
tracks/1/imported = false
tracks/1/enabled = true
tracks/1/keys = {
"times": PoolRealArray( 2 ),
"transitions": PoolRealArray( 1 ),
"values": [ {
"args": [  ],
"method": "pop"
} ]
}

[sub_resource type="Animation" id=2]
resource_name = "zoom_out"
tracks/0/type = "value"
tracks/0/path = NodePath("Camera2D:zoom")
tracks/0/interp = 1
tracks/0/loop_wrap = true
tracks/0/imported = false
tracks/0/enabled = true
tracks/0/keys = {
"times": PoolRealArray( 0, 1 ),
"transitions": PoolRealArray( 0.378929, 0.466516 ),
"update": 0,
"values": [ Vector2( 1, 1 ), Vector2( 1.5, 1.5 ) ]
}

[node name="BubbleLocal" instance=ExtResource( 1 )]
script = ExtResource( 2 )

[node name="Camera2D" type="Camera2D" parent="." index="2"]
zoom = Vector2( 1.5, 1.5 )

[node name="WakeParticles" parent="." index="5"]
visible = true

[node name="SpeedParticles" parent="." index="6"]
visible = true

[node name="OilParticles" parent="." index="7"]
visible = true

[node name="AnimationPlayer" type="AnimationPlayer" parent="." index="11"]
anims/RESET = SubResource( 1 )
anims/zoom_in = SubResource( 3 )
anims/zoom_out = SubResource( 2 )

[node name="KeyDisplay" parent="." index="14" instance=ExtResource( 3 )]
position = Vector2( 0, -110 )

[node name="Splash" type="AudioStreamPlayer2D" parent="." index="15"]
stream = ExtResource( 4 )
volume_db = 12.0
