[gd_scene load_steps=3 format=2]

[ext_resource path="res://bubble/BubbleWander.gd" type="Script" id=1]
[ext_resource path="res://bubble/Bubble.tscn" type="PackedScene" id=2]

[node name="Bubble" instance=ExtResource( 2 )]
script = ExtResource( 1 )
