[gd_resource type="Gradient" format=2]

[resource]
offsets = PoolRealArray( 0, 0.383178, 0.990654, 1 )
colors = PoolColorArray( 0.994575, 1, 0, 0, 1, 0.584314, 0, 0.521569, 0.996078, 0.487879, 0, 0, 0.237548, 1, 0, 0 )
