[gd_resource type="Gradient" format=2]

[resource]
offsets = PoolRealArray( 0, 0.345794, 0.974194 )
colors = PoolColorArray( 0.611765, 0, 1, 0.00392157, 0.316895, 0, 1, 0.666667, 1, 0, 0.470588, 0.00784314 )
