[gd_scene load_steps=3 format=2]

[ext_resource path="res://basic_shapes/square.png" type="Texture" id=1]
[ext_resource path="res://basic_shapes/Triangle.png" type="Texture" id=2]

[node name="CurrentUpIcon" type="Node2D"]
rotation = -1.5708

[node name="square" type="Sprite" parent="."]
modulate = Color( 1, 1, 1, 0.392157 )
position = Vector2( -34.5, 0.5 )
scale = Vector2( 1.17, 0.29 )
texture = ExtResource( 1 )

[node name="Triangle" type="Sprite" parent="."]
modulate = Color( 1, 1, 1, 0.392157 )
position = Vector2( 63, 1 )
rotation = 1.5708
scale = Vector2( 3.8, 3.85 )
texture = ExtResource( 2 )
