[gd_scene load_steps=3 format=2]

[ext_resource path="res://tiles/current/Current.tscn" type="PackedScene" id=1]
[ext_resource path="res://tiles/current/CurrentUp.gd" type="Script" id=2]

[node name="Current" instance=ExtResource( 1 )]
script = ExtResource( 2 )
