[gd_scene load_steps=2 format=2]

[ext_resource path="res://tiles/ghost/squid.png" type="Texture" id=1]

[node name="GhostIcon" type="Node2D"]

[node name="Squid" type="Sprite" parent="."]
position = Vector2( 7, 1 )
texture = ExtResource( 1 )
